Tema 2: importar, exportar, y el análisis del archivo de datos
…
Lectura de las columnas

data[,1]

## Warning: `...` is not empty.
## 
## We detected these problematic arguments:
## * `needs_dots`
## 
## These dots only exist to allow future extensions and should be empty.
## Did you misspecify an argument?

## # A tibble: 1,000 x 1
##       Id
##    <dbl>
##  1  1001
##  2  1002
##  3  1003
##  4  1004
##  5  1005
##  6  1006
##  7  1007
##  8  1008
##  9  1009
## 10  1010
## # ... with 990 more rows

data[,c(1,2)]

## Warning: `...` is not empty.
## 
## We detected these problematic arguments:
## * `needs_dots`
## 
## These dots only exist to allow future extensions and should be empty.
## Did you misspecify an argument?

## # A tibble: 1,000 x 2
##       Id fecha              
##    <dbl> <dttm>             
##  1  1001 2018-01-01 00:00:00
##  2  1002 2018-01-02 00:00:00
##  3  1003 2018-01-03 00:00:00
##  4  1004 2018-01-04 00:00:00
##  5  1005 2018-01-05 00:00:00
##  6  1006 2018-01-06 00:00:00
##  7  1007 2018-01-07 00:00:00
##  8  1008 2018-01-08 00:00:00
##  9  1009 2018-01-09 00:00:00
## 10  1010 2018-01-10 00:00:00
## # ... with 990 more rows

data[,c(1:10)]

## Warning: `...` is not empty.
## 
## We detected these problematic arguments:
## * `needs_dots`
## 
## These dots only exist to allow future extensions and should be empty.
## Did you misspecify an argument?

## # A tibble: 1,000 x 10
##       Id fecha               ingreso1 ingreso2 ingreso3 ingreso4 ingreso5 Sexo 
##    <dbl> <dttm>                 <dbl>    <dbl>    <dbl>    <dbl>    <dbl> <chr>
##  1  1001 2018-01-01 00:00:00     6432     8715     5028     1305     4265 M    
##  2  1002 2018-01-02 00:00:00     8494     7370     3066     2180     7449 H    
##  3  1003 2018-01-03 00:00:00     9529     1936     5597     2398     4697 M    
##  4  1004 2018-01-04 00:00:00     9565     1513     4609     1674     9828 H    
##  5  1005 2018-01-05 00:00:00     4061     6501     3367     3283     7437 M    
##  6  1006 2018-01-06 00:00:00     3137     4938     2294     1515     8726 H    
##  7  1007 2018-01-07 00:00:00     8326     6700     9813     9265     4149 M    
##  8  1008 2018-01-08 00:00:00     8668     8028     3146     7369     2235 H    
##  9  1009 2018-01-09 00:00:00     4328     3387     9795     7312     4338 M    
## 10  1010 2018-01-10 00:00:00     5574     2583     1824     2521     9390 H    
## # ... with 990 more rows, and 2 more variables: Estadocivil <dbl>,
## #   Trabajador <dbl>

data[,-1]

## Warning: `...` is not empty.
## 
## We detected these problematic arguments:
## * `needs_dots`
## 
## These dots only exist to allow future extensions and should be empty.
## Did you misspecify an argument?

## # A tibble: 1,000 x 12
##    fecha               ingreso1 ingreso2 ingreso3 ingreso4 ingreso5 Sexo 
##    <dttm>                 <dbl>    <dbl>    <dbl>    <dbl>    <dbl> <chr>
##  1 2018-01-01 00:00:00     6432     8715     5028     1305     4265 M    
##  2 2018-01-02 00:00:00     8494     7370     3066     2180     7449 H    
##  3 2018-01-03 00:00:00     9529     1936     5597     2398     4697 M    
##  4 2018-01-04 00:00:00     9565     1513     4609     1674     9828 H    
##  5 2018-01-05 00:00:00     4061     6501     3367     3283     7437 M    
##  6 2018-01-06 00:00:00     3137     4938     2294     1515     8726 H    
##  7 2018-01-07 00:00:00     8326     6700     9813     9265     4149 M    
##  8 2018-01-08 00:00:00     8668     8028     3146     7369     2235 H    
##  9 2018-01-09 00:00:00     4328     3387     9795     7312     4338 M    
## 10 2018-01-10 00:00:00     5574     2583     1824     2521     9390 H    
## # ... with 990 more rows, and 5 more variables: Estadocivil <dbl>,
## #   Trabajador <dbl>, Nacionalidad <dbl>, Sangre <chr>, logica <chr>

data[,c(-1:-3)]

## Warning: `...` is not empty.
## 
## We detected these problematic arguments:
## * `needs_dots`
## 
## These dots only exist to allow future extensions and should be empty.
## Did you misspecify an argument?

## # A tibble: 1,000 x 10
##    ingreso2 ingreso3 ingreso4 ingreso5 Sexo  Estadocivil Trabajador Nacionalidad
##       <dbl>    <dbl>    <dbl>    <dbl> <chr>       <dbl>      <dbl>        <dbl>
##  1     8715     5028     1305     4265 M               3          3            7
##  2     7370     3066     2180     7449 H               3          1            5
##  3     1936     5597     2398     4697 M               2          1            4
##  4     1513     4609     1674     9828 H               2          3            5
##  5     6501     3367     3283     7437 M               3          3            5
##  6     4938     2294     1515     8726 H               3          3            5
##  7     6700     9813     9265     4149 M               3          2            2
##  8     8028     3146     7369     2235 H               4          1            6
##  9     3387     9795     7312     4338 M               2          1            5
## 10     2583     1824     2521     9390 H               2          2            5
## # ... with 990 more rows, and 2 more variables: Sangre <chr>, logica <chr>

data[,"ingreso1"]

## Warning: `...` is not empty.
## 
## We detected these problematic arguments:
## * `needs_dots`
## 
## These dots only exist to allow future extensions and should be empty.
## Did you misspecify an argument?

## # A tibble: 1,000 x 1
##    ingreso1
##       <dbl>
##  1     6432
##  2     8494
##  3     9529
##  4     9565
##  5     4061
##  6     3137
##  7     8326
##  8     8668
##  9     4328
## 10     5574
## # ... with 990 more rows

data[,c("ingreso1","ingreso2","ingreso3")]

## Warning: `...` is not empty.
## 
## We detected these problematic arguments:
## * `needs_dots`
## 
## These dots only exist to allow future extensions and should be empty.
## Did you misspecify an argument?

## # A tibble: 1,000 x 3
##    ingreso1 ingreso2 ingreso3
##       <dbl>    <dbl>    <dbl>
##  1     6432     8715     5028
##  2     8494     7370     3066
##  3     9529     1936     5597
##  4     9565     1513     4609
##  5     4061     6501     3367
##  6     3137     4938     2294
##  7     8326     6700     9813
##  8     8668     8028     3146
##  9     4328     3387     9795
## 10     5574     2583     1824
## # ... with 990 more rows
…
data[,-1]

## Warning: `...` is not empty.
## 
## We detected these problematic arguments:
## * `needs_dots`
## 
## These dots only exist to allow future extensions and should be empty.
## Did you misspecify an argument?

## # A tibble: 1,000 x 12
##    fecha               ingreso1 ingreso2 ingreso3 ingreso4 ingreso5 Sexo 
##    <dttm>                 <dbl>    <dbl>    <dbl>    <dbl>    <dbl> <chr>
##  1 2018-01-01 00:00:00     6432     8715     5028     1305     4265 M    
##  2 2018-01-02 00:00:00     8494     7370     3066     2180     7449 H    
##  3 2018-01-03 00:00:00     9529     1936     5597     2398     4697 M    
##  4 2018-01-04 00:00:00     9565     1513     4609     1674     9828 H    
##  5 2018-01-05 00:00:00     4061     6501     3367     3283     7437 M    
##  6 2018-01-06 00:00:00     3137     4938     2294     1515     8726 H    
##  7 2018-01-07 00:00:00     8326     6700     9813     9265     4149 M    
##  8 2018-01-08 00:00:00     8668     8028     3146     7369     2235 H    
##  9 2018-01-09 00:00:00     4328     3387     9795     7312     4338 M    
## 10 2018-01-10 00:00:00     5574     2583     1824     2521     9390 H    
## # ... with 990 more rows, and 5 more variables: Estadocivil <dbl>,
## #   Trabajador <dbl>, Nacionalidad <dbl>, Sangre <chr>, logica <chr>

data[,c(-1:-3)]

## Warning: `...` is not empty.
## 
## We detected these problematic arguments:
## * `needs_dots`
## 
## These dots only exist to allow future extensions and should be empty.
## Did you misspecify an argument?

## # A tibble: 1,000 x 10
##    ingreso2 ingreso3 ingreso4 ingreso5 Sexo  Estadocivil Trabajador Nacionalidad
##       <dbl>    <dbl>    <dbl>    <dbl> <chr>       <dbl>      <dbl>        <dbl>
##  1     8715     5028     1305     4265 M               3          3            7
##  2     7370     3066     2180     7449 H               3          1            5
##  3     1936     5597     2398     4697 M               2          1            4
##  4     1513     4609     1674     9828 H               2          3            5
##  5     6501     3367     3283     7437 M               3          3            5
##  6     4938     2294     1515     8726 H               3          3            5
##  7     6700     9813     9265     4149 M               3          2            2
##  8     8028     3146     7369     2235 H               4          1            6
##  9     3387     9795     7312     4338 M               2          1            5
## 10     2583     1824     2521     9390 H               2          2            5
## # ... with 990 more rows, and 2 more variables: Sangre <chr>, logica <chr>

data[1-10,"ingreso1"]

## Warning: `...` is not empty.
## 
## We detected these problematic arguments:
## * `needs_dots`
## 
## These dots only exist to allow future extensions and should be empty.
## Did you misspecify an argument?

## # A tibble: 999 x 1
##    ingreso1
##       <dbl>
##  1     6432
##  2     8494
##  3     9529
##  4     9565
##  5     4061
##  6     3137
##  7     8326
##  8     8668
##  9     5574
## 10     9831
## # ... with 989 more rows

data[1-50,c("ingreso1","ingreso2","ingreso3")]

## Warning: `...` is not empty.
## 
## We detected these problematic arguments:
## * `needs_dots`
## 
## These dots only exist to allow future extensions and should be empty.
## Did you misspecify an argument?

## # A tibble: 999 x 3
##    ingreso1 ingreso2 ingreso3
##       <dbl>    <dbl>    <dbl>
##  1     6432     8715     5028
##  2     8494     7370     3066
##  3     9529     1936     5597
##  4     9565     1513     4609
##  5     4061     6501     3367
##  6     3137     4938     2294
##  7     8326     6700     9813
##  8     8668     8028     3146
##  9     4328     3387     9795
## 10     5574     2583     1824
## # ... with 989 more rows
…
